\BOOKMARK [1][-]{section.1}{Introduction}{}% 1
\BOOKMARK [1][-]{section.2}{Internal Ballistics Analysis}{}% 2
\BOOKMARK [1][-]{section.3}{Monte Carlo Simulation}{}% 3
\BOOKMARK [1][-]{section.4}{Conclusions}{}% 4
